{
  "objects": {
    "ground": [
      {
        "position": {
          "x": 0,
          "y": 20
        },
        "size": {
          "width": 5000,
          "height": 35
        }
      }
    ],
    "bonus": [
      {
        "position": {
          "x": 600,
          "y": 120
        },
        "size": {
          "width": 30,
          "height": 30
        },
        "amount": 20
      },
      {
        "position": {
          "x": 650,
          "y": 120
        },
        "size": {
          "width": 30,
          "height": 30
        },
        "amount": 20
      },
      {
        "position": {
          "x": 700,
          "y": 120
        },
        "size": {
          "width": 30,
          "height": 30
        },
        "amount": 20
      },
      {
        "position": {
          "x": 750,
          "y": 120
        },
        "size": {
          "width": 30,
          "height": 30
        },
        "amount": 20
      },
      {
        "position": {
          "x": 750,
          "y": 120
        },
        "size": {
          "width": 30,
          "height": 30
        },
        "amount": 20
      },
      {
        "position": {
          "x": 800,
          "y": 120
        },
        "size": {
          "width": 30,
          "height": 30
        },
        "amount": 20
      },
      {
        "position": {
          "x": 850,
          "y": 120
        },
        "size": {
          "width": 30,
          "height": 30
        },
        "amount": 20
      },
      {
        "position": {
          "x": 900,
          "y": 120
        },
        "size": {
          "width": 30,
          "height": 30
        },
        "amount": 20
      }
    ],
    "block": [],
    "user": {
      "size": {
        "width": 139,
        "height": 125
      },
      "position": {
        "x": 80,
        "y": 100
      }
    },
    "finish": {
      "size": {
        "width": 120,
        "height": 200
      },
      "position": {
        "x": 20500,
        "y": 100
      }
    }
  },
  "speed": 350,
  "tapPower": 1100,
  "G": -2500
}